"root"
""
0.000000, 0.000000, 0.000000,
"Base"
"root"
0.000000, 0.0000, 100.000000
"Stem"
"Base"
0.000000, 0.000000, 90.00000
"Head"
"Stem"
0.000000, 0.0000, 80.00000
"Barrel"
"Head"
0.000000, 62.000000, 0.000000